 public static void filtroMedia(int[][]matriz,int size){
        
        int media=0;
        for(int i=0;i<size;i++){
            for(int j=0;j<size;j++){
                     int cont=0;
                     int soma=0;
                     for(int i2=-(TAMANHO_MATRIZ_FILTRO-2);i2<=TAMANHO_MATRIZ_FILTRO-2;i2++){
                         for(int j2=-(TAMANHO_MATRIZ_FILTRO-2);j2<=TAMANHO_MATRIZ_FILTRO-2;j2++){
                             if(i+i2>=0 && i+i2<size && j+j2>=0 && j+j2<size){
                              soma=soma+matriz[i+i2][j+j2];
                              cont=cont+1;
                             }
                        }
                     }
                     matriz[i][j]=soma/(cont);
                 
            }
        }
    }